1 0 1 15 32 64 128 256 512 1024
2 0 2 16 32 64 128 256 512 1024
3 0 3 17 32 64 128 256 512 1024
4 0 1 18 32 64 128 256 512 1024
5 1 1 15 32 64 128 256 512 1024
6 1 2 16 32 64 128 256 512 1024
7 1 3 17 32 64 128 256 512 1024
8 1 1 18 32 64 128 256 512 1024
